…
# Data

``` r
# data #-----------
(data <- rio::import(here("note_CTSenvepi/envepi_original.csv")) %>% 
  tibble())
```

    ## # A tibble: 363,901 × 9
    ##    id      date        year month   dow     y pollen    pm tmean
    ##    <chr>   <IDate>    <int> <int> <int> <int>  <dbl> <dbl> <dbl>
    ##  1 sub0001 2016-08-03  2016     8     4     0  0.524 84.4  13.3 
    ##  2 sub0001 2016-08-04  2016     8     5     0  1.38  10.6   6.70
    ##  3 sub0001 2016-08-05  2016     8     6     0  1.57   8.89  5.96
    ##  4 sub0001 2016-08-06  2016     8     7     0  2.27  29.2   9.02
    ##  5 sub0001 2016-08-07  2016     8     1     0  1.82  42.0   9.20
    ##  6 sub0001 2016-08-08  2016     8     2     0  1.29  98.0  12.4 
    ##  7 sub0001 2016-08-09  2016     8     3     0  2.62  93.0  13.1 
    ##  8 sub0001 2016-08-10  2016     8     4     0  1.49  18.8  11.5 
    ##  9 sub0001 2016-08-11  2016     8     5     0  3.30   6.28 13.1 
    ## 10 sub0001 2016-08-12  2016     8     6     0  1.54  12.7  11.1 
    ## # ℹ 363,891 more rows
…
| skim_variable | n_missing | complete_rate | mean | sd | p0 | p25 | p50 | p75 | p100 | hist |
|:---|---:|---:|---:|---:|---:|---:|---:|---:|---:|:---|
| year | 0 | 1 | 2017.18 | 0.78 | 2015.00 | 2017.00 | 2017.00 | 2018.00 | 2018.00 | ▁▅▁▇▇ |
| month | 0 | 1 | 6.73 | 3.32 | 1.00 | 4.00 | 7.00 | 10.00 | 12.00 | ▆▅▆▆▇ |
| dow | 0 | 1 | 4.00 | 2.00 | 1.00 | 2.00 | 4.00 | 6.00 | 7.00 | ▇▃▃▃▇ |
| y | 0 | 1 | 0.04 | 0.20 | 0.00 | 0.00 | 0.00 | 0.00 | 1.00 | ▇▁▁▁▁ |
| pollen | 0 | 1 | 36.00 | 65.54 | 0.11 | 3.23 | 11.45 | 40.25 | 707.21 | ▇▁▁▁▁ |
| pm | 0 | 1 | 47.29 | 112.84 | 0.09 | 4.69 | 13.85 | 43.60 | 2140.71 | ▇▁▁▁▁ |
| tmean | 0 | 1 | 14.33 | 5.43 | 1.45 | 10.24 | 14.28 | 18.54 | 29.43 | ▂▇▇▆▁ |

``` r
data %>% count(id)
```

    ## # A tibble: 1,601 × 2
    ##    id          n
    ##    <chr>   <int>
    ##  1 sub0001    41
    ##  2 sub0002   495
    ##  3 sub0003   254
    ##  4 sub0004   622
    ##  5 sub0005    84
    ##  6 sub0006   136
    ##  7 sub0007    78
    ##  8 sub0008    57
    ##  9 sub0009   437
    ## 10 sub0010    11
    ## # ℹ 1,591 more rows
…
Generate `stratum`

``` r
(data <- data %>% 
    mutate(across(.cols = c(id, month, year, dow),
                  as.factor),
           stratum = as.factor(id:year:month)))
```

    ## # A tibble: 363,901 × 10
    ##    id      date       year  month dow       y pollen    pm tmean stratum       
    ##    <fct>   <IDate>    <fct> <fct> <fct> <int>  <dbl> <dbl> <dbl> <fct>         
    ##  1 sub0001 2016-08-03 2016  8     4         0  0.524 84.4  13.3  sub0001:2016:8
    ##  2 sub0001 2016-08-04 2016  8     5         0  1.38  10.6   6.70 sub0001:2016:8
    ##  3 sub0001 2016-08-05 2016  8     6         0  1.57   8.89  5.96 sub0001:2016:8
    ##  4 sub0001 2016-08-06 2016  8     7         0  2.27  29.2   9.02 sub0001:2016:8
    ##  5 sub0001 2016-08-07 2016  8     1         0  1.82  42.0   9.20 sub0001:2016:8
    ##  6 sub0001 2016-08-08 2016  8     2         0  1.29  98.0  12.4  sub0001:2016:8
    ##  7 sub0001 2016-08-09 2016  8     3         0  2.62  93.0  13.1  sub0001:2016:8
    ##  8 sub0001 2016-08-10 2016  8     4         0  1.49  18.8  11.5  sub0001:2016:8
    ##  9 sub0001 2016-08-11 2016  8     5         0  3.30   6.28 13.1  sub0001:2016:8
    ## 10 sub0001 2016-08-12 2016  8     6         0  1.54  12.7  11.1  sub0001:2016:8
    ## # ℹ 363,891 more rows
…
