…
  exphist <- exphist(data$flu, lag=c(1,91), fill=0)

  return(data.table(cbind(data, exphist)))
})
data <- do.call(rbind, dlist)

dlist |> tibble::enframe(name = "id")
```

    ## # A tibble: 3,927 × 2
    ##       id value          
    ##    <int> <list>         
    ##  1     1 <dt [365 × 99]>
    ##  2     2 <dt [365 × 99]>
    ##  3     3 <dt [365 × 99]>
    ##  4     4 <dt [365 × 99]>
    ##  5     5 <dt [365 × 99]>
    ##  6     6 <dt [365 × 99]>
    ##  7     7 <dt [365 × 99]>
    ##  8     8 <dt [365 × 99]>
    ##  9     9 <dt [365 × 99]>
    ## 10    10 <dt [365 × 99]>
    ## # ℹ 3,917 more rows
…
    ##  [1] "id"    "date"  "times" "age"   "y"     "flu"   "month" "doy"   "lag1"  "lag2"  "lag3" 
    ## [12] "lag4"  "lag5"  "lag6"  "lag7"  "lag8"  "lag9"  "lag10" "lag11" "lag12" "lag13" "lag14"
    ## [23] "lag15" "lag16" "lag17" "lag18" "lag19" "lag20" "lag21" "lag22" "lag23" "lag24" "lag25"
    ## [34] "lag26" "lag27" "lag28" "lag29" "lag30" "lag31" "lag32" "lag33" "lag34" "lag35" "lag36"
    ## [45] "lag37" "lag38" "lag39" "lag40" "lag41" "lag42" "lag43" "lag44" "lag45" "lag46" "lag47"
    ## [56] "lag48" "lag49" "lag50" "lag51" "lag52" "lag53" "lag54" "lag55" "lag56" "lag57" "lag58"
    ## [67] "lag59" "lag60" "lag61" "lag62" "lag63" "lag64" "lag65" "lag66" "lag67" "lag68" "lag69"
    ## [78] "lag70" "lag71" "lag72" "lag73" "lag74" "lag75" "lag76" "lag77" "lag78" "lag79" "lag80"
    ## [89] "lag81" "lag82" "lag83" "lag84" "lag85" "lag86" "lag87" "lag88" "lag89" "lag90" "lag91"

``` r
dlist[[1]] |> tibble::tibble()
```

    ## # A tibble: 365 × 99
    ##    id    date       times   age     y   flu month   doy  lag1  lag2  lag3  lag4  lag5  lag6  lag7
    ##    <chr> <date>     <int> <dbl> <dbl> <dbl> <int> <int> <dbl> <dbl> <dbl> <dbl> <dbl> <dbl> <dbl>
    ##  1 sub0… 2007-01-01     1  92.7     0     0     1     1     0     0     0     0     0     0     0
    ##  2 sub0… 2007-01-02     2  92.7     0     0     1     2     0     0     0     0     0     0     0
    ##  3 sub0… 2007-01-03     3  92.7     0     0     1     3     0     0     0     0     0     0     0
    ##  4 sub0… 2007-01-04     4  92.7     0     0     1     4     0     0     0     0     0     0     0
    ##  5 sub0… 2007-01-05     5  92.7     0     0     1     5     0     0     0     0     0     0     0
    ##  6 sub0… 2007-01-06     6  92.7     0     0     1     6     0     0     0     0     0     0     0
    ##  7 sub0… 2007-01-07     7  92.7     0     0     1     7     0     0     0     0     0     0     0
    ##  8 sub0… 2007-01-08     8  92.7     0     0     1     8     0     0     0     0     0     0     0
    ##  9 sub0… 2007-01-09     9  92.7     0     0     1     9     0     0     0     0     0     0     0
    ## 10 sub0… 2007-01-10    10  92.7     0     0     1    10     0     0     0     0     0     0     0
    ## # ℹ 355 more rows
    ## # ℹ 84 more variables: lag8 <dbl>, lag9 <dbl>, lag10 <dbl>, lag11 <dbl>, lag12 <dbl>,
    ## #   lag13 <dbl>, lag14 <dbl>, lag15 <dbl>, lag16 <dbl>, lag17 <dbl>, lag18 <dbl>, lag19 <dbl>,
    ## #   lag20 <dbl>, lag21 <dbl>, lag22 <dbl>, lag23 <dbl>, lag24 <dbl>, lag25 <dbl>, lag26 <dbl>,
    ## #   lag27 <dbl>, lag28 <dbl>, lag29 <dbl>, lag30 <dbl>, lag31 <dbl>, lag32 <dbl>, lag33 <dbl>,
    ## #   lag34 <dbl>, lag35 <dbl>, lag36 <dbl>, lag37 <dbl>, lag38 <dbl>, lag39 <dbl>, lag40 <dbl>,
    ## #   lag41 <dbl>, lag42 <dbl>, lag43 <dbl>, lag44 <dbl>, lag45 <dbl>, lag46 <dbl>, lag47 <dbl>, …
…
