…
# Data

``` r
# data #-----------
```

Originial data

``` r
(data_orginial <- rio::import(here("note_CTSclinepi/clinepi_original.csv")) %>% 
  tibble())
```

    ## # A tibble: 3,927 × 15
    ##    id     dob        start   end event  flu1  flu2  flu3  flu4  flu5  flu6  flu7  flu8  flu9 flu10
    ##    <chr>  <IDate>    <int> <int> <int> <int> <int> <int> <int> <int> <int> <int> <int> <int> <lgl>
    ##  1 sub001 1914-04-25 33854 34218 34144 33923 33949 34209    NA    NA    NA    NA    NA    NA NA   
    ##  2 sub002 1933-07-27 26821 27185 26988 26982 27048    NA    NA    NA    NA    NA    NA    NA NA   
    ##  3 sub003 1916-08-18 33008 33372 33274 33105 33273 33276    NA    NA    NA    NA    NA    NA NA   
    ##  4 sub004 1945-05-01 22525 22889 22867 22788    NA    NA    NA    NA    NA    NA    NA    NA NA   
    ##  5 sub005 1936-05-24 25789 26153 26008 25896 25941 25982    NA    NA    NA    NA    NA    NA NA   
    ##  6 sub006 1916-03-24 33155 33519 33460 33281    NA    NA    NA    NA    NA    NA    NA    NA NA   
    ##  7 sub007 1969-10-07 13600 13964 13711 13942    NA    NA    NA    NA    NA    NA    NA    NA NA   
    ##  8 sub008 1955-01-16 18978 19342 19338 19022 19273    NA    NA    NA    NA    NA    NA    NA NA   
    ##  9 sub009 1956-09-02 18383 18747 18738 18637    NA    NA    NA    NA    NA    NA    NA    NA NA   
    ## 10 sub010 1937-12-10 25224 25588 25281 25335 25551    NA    NA    NA    NA    NA    NA    NA NA   
    ## # ℹ 3,917 more rows
…
Expanded data

``` r
data_expanded <- rio::import(here("note_CTSclinepi/clinepi_expanded.rds"))

data_expanded %>% enframe()
```

    ## # A tibble: 3,927 × 2
    ##     name value          
    ##    <int> <list>         
    ##  1     1 <dt [365 × 99]>
    ##  2     2 <dt [365 × 99]>
    ##  3     3 <dt [365 × 99]>
    ##  4     4 <dt [365 × 99]>
    ##  5     5 <dt [365 × 99]>
    ##  6     6 <dt [365 × 99]>
    ##  7     7 <dt [365 × 99]>
    ##  8     8 <dt [365 × 99]>
    ##  9     9 <dt [365 × 99]>
    ## 10    10 <dt [365 × 99]>
    ## # ℹ 3,917 more rows

Example of patient sub001 - first 10 rows

``` r
data_expanded[[1]] %>% tibble()
```

    ## # A tibble: 365 × 99
    ##    id     date       times   age     y   flu month   doy  lag1  lag2  lag3  lag4  lag5  lag6  lag7
    ##    <chr>  <date>     <int> <dbl> <dbl> <dbl> <int> <int> <dbl> <dbl> <dbl> <dbl> <dbl> <dbl> <dbl>
    ##  1 sub001 2007-01-01     1  92.7     0     0     1     1     0     0     0     0     0     0     0
    ##  2 sub001 2007-01-02     2  92.7     0     0     1     2     0     0     0     0     0     0     0
    ##  3 sub001 2007-01-03     3  92.7     0     0     1     3     0     0     0     0     0     0     0
    ##  4 sub001 2007-01-04     4  92.7     0     0     1     4     0     0     0     0     0     0     0
    ##  5 sub001 2007-01-05     5  92.7     0     0     1     5     0     0     0     0     0     0     0
    ##  6 sub001 2007-01-06     6  92.7     0     0     1     6     0     0     0     0     0     0     0
    ##  7 sub001 2007-01-07     7  92.7     0     0     1     7     0     0     0     0     0     0     0
    ##  8 sub001 2007-01-08     8  92.7     0     0     1     8     0     0     0     0     0     0     0
    ##  9 sub001 2007-01-09     9  92.7     0     0     1     9     0     0     0     0     0     0     0
    ## 10 sub001 2007-01-10    10  92.7     0     0     1    10     0     0     0     0     0     0     0
    ## # ℹ 355 more rows
    ## # ℹ 84 more variables: lag8 <dbl>, lag9 <dbl>, lag10 <dbl>, lag11 <dbl>, lag12 <dbl>, lag13 <dbl>,
    ## #   lag14 <dbl>, lag15 <dbl>, lag16 <dbl>, lag17 <dbl>, lag18 <dbl>, lag19 <dbl>, lag20 <dbl>,
    ## #   lag21 <dbl>, lag22 <dbl>, lag23 <dbl>, lag24 <dbl>, lag25 <dbl>, lag26 <dbl>, lag27 <dbl>,
    ## #   lag28 <dbl>, lag29 <dbl>, lag30 <dbl>, lag31 <dbl>, lag32 <dbl>, lag33 <dbl>, lag34 <dbl>,
    ## #   lag35 <dbl>, lag36 <dbl>, lag37 <dbl>, lag38 <dbl>, lag39 <dbl>, lag40 <dbl>, lag41 <dbl>,
    ## #   lag42 <dbl>, lag43 <dbl>, lag44 <dbl>, lag45 <dbl>, lag46 <dbl>, lag47 <dbl>, lag48 <dbl>, …
…
Data for modelling

``` r
data <- data_expanded %>% list_rbind() %>% tibble()

data
```

    ## # A tibble: 1,433,355 × 99
    ##    id     date       times   age     y   flu month   doy  lag1  lag2  lag3  lag4  lag5  lag6  lag7
    ##    <chr>  <date>     <int> <dbl> <dbl> <dbl> <int> <int> <dbl> <dbl> <dbl> <dbl> <dbl> <dbl> <dbl>
    ##  1 sub001 2007-01-01     1  92.7     0     0     1     1     0     0     0     0     0     0     0
    ##  2 sub001 2007-01-02     2  92.7     0     0     1     2     0     0     0     0     0     0     0
    ##  3 sub001 2007-01-03     3  92.7     0     0     1     3     0     0     0     0     0     0     0
    ##  4 sub001 2007-01-04     4  92.7     0     0     1     4     0     0     0     0     0     0     0
    ##  5 sub001 2007-01-05     5  92.7     0     0     1     5     0     0     0     0     0     0     0
    ##  6 sub001 2007-01-06     6  92.7     0     0     1     6     0     0     0     0     0     0     0
    ##  7 sub001 2007-01-07     7  92.7     0     0     1     7     0     0     0     0     0     0     0
    ##  8 sub001 2007-01-08     8  92.7     0     0     1     8     0     0     0     0     0     0     0
    ##  9 sub001 2007-01-09     9  92.7     0     0     1     9     0     0     0     0     0     0     0
    ## 10 sub001 2007-01-10    10  92.7     0     0     1    10     0     0     0     0     0     0     0
    ## # ℹ 1,433,345 more rows
    ## # ℹ 84 more variables: lag8 <dbl>, lag9 <dbl>, lag10 <dbl>, lag11 <dbl>, lag12 <dbl>, lag13 <dbl>,
    ## #   lag14 <dbl>, lag15 <dbl>, lag16 <dbl>, lag17 <dbl>, lag18 <dbl>, lag19 <dbl>, lag20 <dbl>,
    ## #   lag21 <dbl>, lag22 <dbl>, lag23 <dbl>, lag24 <dbl>, lag25 <dbl>, lag26 <dbl>, lag27 <dbl>,
    ## #   lag28 <dbl>, lag29 <dbl>, lag30 <dbl>, lag31 <dbl>, lag32 <dbl>, lag33 <dbl>, lag34 <dbl>,
    ## #   lag35 <dbl>, lag36 <dbl>, lag37 <dbl>, lag38 <dbl>, lag39 <dbl>, lag40 <dbl>, lag41 <dbl>,
    ## #   lag42 <dbl>, lag43 <dbl>, lag44 <dbl>, lag45 <dbl>, lag46 <dbl>, lag47 <dbl>, lag48 <dbl>, …
…
Distributed lag model (DLM): Cross-basis for `flu` with lag period from
1-91 days

``` r
# exposure history
(exphist <- data %>% select(contains("lag")))
```

    ## # A tibble: 1,433,355 × 91
    ##     lag1  lag2  lag3  lag4  lag5  lag6  lag7  lag8  lag9 lag10 lag11 lag12 lag13 lag14 lag15 lag16
    ##    <dbl> <dbl> <dbl> <dbl> <dbl> <dbl> <dbl> <dbl> <dbl> <dbl> <dbl> <dbl> <dbl> <dbl> <dbl> <dbl>
    ##  1     0     0     0     0     0     0     0     0     0     0     0     0     0     0     0     0
    ##  2     0     0     0     0     0     0     0     0     0     0     0     0     0     0     0     0
    ##  3     0     0     0     0     0     0     0     0     0     0     0     0     0     0     0     0
    ##  4     0     0     0     0     0     0     0     0     0     0     0     0     0     0     0     0
    ##  5     0     0     0     0     0     0     0     0     0     0     0     0     0     0     0     0
    ##  6     0     0     0     0     0     0     0     0     0     0     0     0     0     0     0     0
    ##  7     0     0     0     0     0     0     0     0     0     0     0     0     0     0     0     0
    ##  8     0     0     0     0     0     0     0     0     0     0     0     0     0     0     0     0
    ##  9     0     0     0     0     0     0     0     0     0     0     0     0     0     0     0     0
    ## 10     0     0     0     0     0     0     0     0     0     0     0     0     0     0     0     0
    ## # ℹ 1,433,345 more rows
    ## # ℹ 75 more variables: lag17 <dbl>, lag18 <dbl>, lag19 <dbl>, lag20 <dbl>, lag21 <dbl>,
    ## #   lag22 <dbl>, lag23 <dbl>, lag24 <dbl>, lag25 <dbl>, lag26 <dbl>, lag27 <dbl>, lag28 <dbl>,
    ## #   lag29 <dbl>, lag30 <dbl>, lag31 <dbl>, lag32 <dbl>, lag33 <dbl>, lag34 <dbl>, lag35 <dbl>,
    ## #   lag36 <dbl>, lag37 <dbl>, lag38 <dbl>, lag39 <dbl>, lag40 <dbl>, lag41 <dbl>, lag42 <dbl>,
    ## #   lag43 <dbl>, lag44 <dbl>, lag45 <dbl>, lag46 <dbl>, lag47 <dbl>, lag48 <dbl>, lag49 <dbl>,
    ## #   lag50 <dbl>, lag51 <dbl>, lag52 <dbl>, lag53 <dbl>, lag54 <dbl>, lag55 <dbl>, lag56 <dbl>, …
…
